{
  "images" : [
    {
      "idiom" : "universal",
      "filename" : "if_Camera_digital_camera_photographic_equipment_photography_picture_1886518 (2).png",
      "scale" : "1x"
    },
    {
      "idiom" : "universal",
      "filename" : "if_Camera_digital_camera_photographic_equipment_photography_picture_1886518 (2)-1.png",
      "scale" : "2x"
    },
    {
      "idiom" : "universal",
      "scale" : "3x"
    }
  ],
  "info" : {
    "version" : 1,
    "author" : "xcode"
  }
}